{"documents":[{"uuid":"49daed80-6d06-11df-afb8-0026b95d30b2","title":"The Core Competence of the Corporation","publication_outlet":"Harvard Business Review","year":1990,"mendeley_url":"http:\/\/www.mendeley.com\/research\/core-competence-corporation\/","doi":"10.1007\/3-540-30763-X_14","authors":[{"forename":"C K","surname":"Prahalad"},{"forename":"Gary","surname":"Hamel"}]},{"uuid":"2dca2181-b5d4-11df-a52e-0024e8453de6","title":"The t-core of an s-core","publication_outlet":"Young","year":2010,"mendeley_url":"http:\/\/www.mendeley.com\/research\/t-core-s-core\/","doi":null,"authors":[{"forename":"Matthew","surname":"Fayers"}]},{"uuid":"e6a9c430-6cff-11df-afb8-0026b95d30b2","title":"Core Training: Stabilizing the Confusion","publication_outlet":"Strength and Conditioning Journal","year":2007,"mendeley_url":"http:\/\/www.mendeley.com\/research\/core-training-stabilizing-confusion\/","doi":"10.1519\/1533-4295(2007)29[10:CTSTC]2.0.CO;2","authors":[{"forename":"Mark D","surname":"Faries"},{"forename":"Mike","surname":"Greenwood"}]},{"uuid":"3e95cae0-6be2-11e0-a2d8-0024e8453de6","title":"The Cache-Core Architecture to Enhance the Memory Performance on Multi-Core Processors","publication_outlet":"2009 International Conference on Parallel and Distributed Computing Applications and Technologies","year":2009,"mendeley_url":"http:\/\/www.mendeley.com\/research\/cache-core-architecture-enhance-memory-performance-multi-core-processors\/","doi":"10.1109\/PDCAT.2009.84","authors":[{"forename":"Y","surname":"Mori"},{"forename":"K","surname":"Kise"}]},{"uuid":"f396d5e0-bba9-11df-80e0-0024e8453de6","title":"Mantle regulation of core cooling: A geodynamo without core radioactivity?","publication_outlet":"Physics of the Earth and Planetary Interiors","year":2007,"mendeley_url":"http:\/\/www.mendeley.com\/research\/mantle-regulation-core-cooling-geodynamo-without-core-radioactivity\/","doi":"10.1016\/j.pepi.2006.11.001","authors":[{"forename":"G","surname":"Davies"}]},{"uuid":"1d5d06c0-f3de-11e0-b69e-0024e8453de6","title":"The Core Deposit Intangible Asset","publication_outlet":"Accounting Horizons","year":1991,"mendeley_url":"http:\/\/www.mendeley.com\/research\/core-deposit-intangible-asset\/","doi":null,"authors":[{"forename":"Walter T","surname":"Harrison Jr."},{"forename":"Danny P","surname":"Hollingsworth"}]},{"uuid":"07538070-7012-11e0-a2d8-0024e8453de6","title":"R: A Language and Environment for Statistical Computing","publication_outlet":"R Foundation for Statistical Computing","year":2011,"mendeley_url":"http:\/\/www.mendeley.com\/research\/r-language-environment-statistical-computing-66\/","doi":"10.1007\/978-3-540-74686-7","authors":[{"forename":"R","surname":"R Development Core Team"}]},{"uuid":"ea3ad2d0-6d02-11df-a2b2-0026b95e3eb7","title":"The distributed human neural system for face perception.","publication_outlet":"Trends in Cognitive Sciences","year":2000,"mendeley_url":"http:\/\/www.mendeley.com\/research\/distributed-human-neural-system-face-perception-4\/","doi":"10.1016\/S1364-6613(00)01482-0","authors":[{"forename":"Jv","surname":"Haxby"},{"forename":"Ea","surname":"Hoffman"},{"forename":"Mi","surname":"Gobbini"}]},{"uuid":"58bdb580-c5f6-11e1-be8f-0024e8453de6","title":"Core capabilities and core rigidities: A paradox in management new product development","publication_outlet":"Strategic Management Journal","year":1992,"mendeley_url":"http:\/\/www.mendeley.com\/research\/core-capabilities-core-rigidities-paradox-management-new-product-development\/","doi":null,"authors":[{"forename":"D","surname":"Leonard-Barton"}]},{"uuid":"86977270-c4ae-11df-833d-0024e8453de6","title":"Plastic dowel and core systems.","publication_outlet":"The Journal of prosthetic dentistry","year":1988,"mendeley_url":"http:\/\/www.mendeley.com\/research\/plastic-dowel-core-systems\/","doi":null,"authors":[{"forename":"L C","surname":"Christensen"}]},{"uuid":"3f5b9162-03de-4fe4-b251-737f1383559b","title":"FCCM: A Novel Inter-Core Communication Mechanism in Multi-Core Platform","publication_outlet":"Information Science and Engineering ICISE 2009 1st International Conference on","year":2009,"mendeley_url":"http:\/\/www.mendeley.com\/research\/fccm-novel-intercore-communication-mechanism-multicore-platform\/","doi":"10.1109\/ICISE.2009.589","authors":[{"forename":"Cheng Luo Cheng","surname":"Luo"},{"forename":"Yuebin Bai Yuebin","surname":"Bai"},{"forename":"Cong Xu Cong","surname":"Xu"},{"forename":"Liang Zhang Liang","surname":"Zhang"}]},{"uuid":"8f2660af-ab18-4324-aa4c-f1c2c9800eab","title":"Mars: A new core-crystallization regime","publication_outlet":"Science","year":2007,"mendeley_url":"http:\/\/www.mendeley.com\/research\/mars-new-corecrystallization-regime-1\/","doi":"10.1126\/science.1140549","authors":[{"forename":"A J","surname":"Stewart"},{"forename":"M W","surname":"Schmidt"},{"forename":"W","surname":"Van Westrenen"},{"forename":"C","surname":"Liebske"}]},{"uuid":"1ff39750-809e-11df-aedb-0024e8453de8","title":"Mesh-based many-core performance under process variations : a core yield perspective","publication_outlet":"ACM SIGARCH Computer Architecture News","year":2010,"mendeley_url":"http:\/\/www.mendeley.com\/research\/mesh-based-core-performance-under-process-variations-core-yield-perspective\/","doi":null,"authors":[{"forename":"Enric","surname":"Musoll"}]},{"uuid":"2036a9e0-6d0d-11df-936c-0026b95e484c","title":"The age of the inner core","publication_outlet":"Earth and Planetary Science Letters","year":2001,"mendeley_url":"http:\/\/www.mendeley.com\/research\/age-inner-core\/","doi":"10.1016\/S0012-821X(01)00387-9","authors":[{"forename":"St\u00e9phane","surname":"Labrosse"},{"forename":"Jean-Paul","surname":"Poirier"},{"forename":"Jean-Louis","surname":"Le Mou\u00ebl"}]},{"uuid":"bf60607e-ab6f-465a-b609-b590b72e51ce","title":"Journals in the core collection: Definition, identification, and applications","publication_outlet":"Serials Librarian","year":2007,"mendeley_url":"http:\/\/www.mendeley.com\/research\/journals-core-collection-definition-identification-applications-3\/","doi":null,"authors":[{"forename":"T E","surname":"Nisonger"}]},{"uuid":"b8382bf0-6d04-11df-936c-0026b95e484c","title":"Chimeric hepatitis B virus core particles with parts or copies of the hepatitis C virus core protein.","publication_outlet":"Journal of Virology","year":1993,"mendeley_url":"http:\/\/www.mendeley.com\/research\/chimeric-hepatitis-b-virus-core-particles-parts-copies-hepatitis-c-virus-core-protein\/","doi":null,"authors":[{"forename":"A","surname":"Yoshikawa"},{"forename":"T","surname":"Tanaka"},{"forename":"Y","surname":"Hoshi"},{"forename":"N","surname":"Kato"},{"forename":"K","surname":"Tachibana"},{"forename":"H","surname":"Iizuka"},{"forename":"A","surname":"Machida"},{"forename":"H","surname":"Okamoto"},{"forename":"M","surname":"Yamasaki"},{"forename":"Y","surname":"Miyakawa"}]},{"uuid":"ed326590-db04-11e0-83ce-0024e8453de6","title":"Organizational Core Competencies and Network Knowledge Management","publication_outlet":"2009 International Conference on Innovation Management","year":2009,"mendeley_url":"http:\/\/www.mendeley.com\/research\/organizational-core-competencies-network-knowledge-management\/","doi":"10.1109\/ICIM.2009.36","authors":[{"forename":"Jianping ZhuGe Jianping","surname":"ZhuGe"}]},{"uuid":"0faa85c0-6d02-11df-afb8-0026b95d30b2","title":"The Core as the Set of Eventually Stable Outcomes: A Note","publication_outlet":"Games and Economic Behavior","year":2006,"mendeley_url":"http:\/\/www.mendeley.com\/research\/core-set-eventually-stable-outcomes-note\/","doi":"10.1016\/j.geb.2004.10.002","authors":[{"forename":"A","surname":"Bhattacharya"},{"forename":"Z","surname":"Abderrahmane"}]},{"uuid":"871a9450-edaf-11df-99a6-0024e8453de6","title":"What Makes Professional Development Effective? Results From a National Sample of Teachers","publication_outlet":"American Educational Research Journal","year":2001,"mendeley_url":"http:\/\/www.mendeley.com\/research\/makes-professional-development-effective-results-national-sample-teachers\/","doi":"10.3102\/00028312038004915","authors":[{"forename":"M S","surname":"Garet"},{"forename":"A C","surname":"Porter"},{"forename":"L","surname":"Desimone"},{"forename":"B F","surname":"Birman"},{"forename":"K S","surname":"Yoon"}]},{"uuid":"efc5513c-c3cf-4266-b695-33bb42a3a34b","title":"Auger shifts in metal clusters","publication_outlet":"Physical Review B","year":1987,"mendeley_url":"http:\/\/www.mendeley.com\/research\/auger-shifts-metal-clusters\/","doi":"10.1103\/PhysRevB.36.9559","authors":[{"forename":"G K","surname":"Wertheim"}]}],"total_results":321799,"total_pages":16090,"current_page":0,"items_per_page":20}